<svg width="33" height="32" viewBox="0 0 33 32" fill="none" xmlns="http://www.w3.org/2000/svg">
<g clip-path="url(#clip0_7608_15000)">
<path d="M28.1703 3.87463H15.0522L12.4733 0.643097H1.41895V20.781C1.41979 21.7851 1.81929 22.7479 2.52963 23.4576C3.23997 24.1674 4.20305 24.566 5.2072 24.566V24.566" stroke="#171321" stroke-width="1.27982" stroke-linecap="round" stroke-linejoin="round"/>
<path d="M5.20605 24.566H28.3451C29.3493 24.566 30.3123 24.1673 31.0227 23.4576C31.733 22.7478 32.1325 21.7851 32.1334 20.7809V6.70298H8.99431V20.7809C8.99346 21.7851 8.59397 22.7478 7.88362 23.4576C7.17328 24.1673 6.21021 24.566 5.20605 24.566Z" stroke="#171321" stroke-width="1.27982" stroke-linecap="round" stroke-linejoin="round"/>
<path d="M15.4009 27.1545V28.6039H1.41895V31.3587H32.1345V28.6039H18.1525V27.2313" stroke="#171321" stroke-width="1.27982" stroke-linecap="round" stroke-linejoin="round"/>
<path d="M25.0137 31.3635V28.6038" stroke="#171321" stroke-width="1.27982" stroke-linecap="round" stroke-linejoin="round"/>
<path d="M8.53516 28.6038V31.3635" stroke="#171321" stroke-width="1.27982" stroke-linecap="round" stroke-linejoin="round"/>
<path d="M17.0331 16.7176L15.2285 14.9131L17.0331 13.1085" stroke="#171321" stroke-width="1.27982" stroke-linecap="round" stroke-linejoin="round"/>
<path d="M24.0918 13.1085L25.8963 14.9131L24.0918 16.7176" stroke="#171321" stroke-width="1.27982" stroke-linecap="round" stroke-linejoin="round"/>
<path d="M21.5037 12.155L19.6191 17.703" stroke="#171321" stroke-width="1.27982" stroke-linecap="round" stroke-linejoin="round"/>
</g>
<defs>
<clipPath id="clip0_7608_15000">
<rect width="31.9954" height="31.9954" fill="white" transform="translate(0.779785 0.00314331)"/>
</clipPath>
</defs>
</svg>
