<svg width="96" height="96" viewBox="0 0 96 96" fill="none" xmlns="http://www.w3.org/2000/svg">
<g clip-path="url(#clip0_289_5047)">
<path d="M12.0384 41.8848V94.08H83.9616V41.8848H12.0384ZM51.3216 71.8752V78.5952C51.3216 79.4761 50.9716 80.321 50.3487 80.9439C49.7258 81.5668 48.8809 81.9168 48 81.9168C47.119 81.9168 46.2742 81.5668 45.6513 80.9439C45.0283 80.321 44.6784 79.4761 44.6784 78.5952V71.8752C43.495 71.1512 42.5806 70.0604 42.0743 68.7689C41.568 67.4773 41.4975 66.0557 41.8735 64.7204C42.2496 63.3851 43.0516 62.2092 44.1575 61.3718C45.2635 60.5343 46.6127 60.081 48 60.081C49.3872 60.081 50.7365 60.5343 51.8424 61.3718C52.9484 62.2092 53.7504 63.3851 54.1265 64.7204C54.5025 66.0557 54.432 67.4773 53.9257 68.7689C53.4194 70.0604 52.505 71.1512 51.3216 71.8752Z" fill="#FCA121"/>
<path d="M73.1712 43.8048C72.662 43.8048 72.1736 43.6025 71.8136 43.2424C71.4535 42.8824 71.2512 42.394 71.2512 41.8848V27.0912C71.2512 20.9246 68.8015 15.0106 64.4411 10.6501C60.0807 6.28967 54.1666 3.84 48 3.84C41.8334 3.84 35.9194 6.28967 31.5589 10.6501C27.1985 15.0106 24.7488 20.9246 24.7488 27.0912V41.8848C24.7488 42.394 24.5465 42.8824 24.1865 43.2424C23.8264 43.6025 23.338 43.8048 22.8288 43.8048C22.3196 43.8048 21.8312 43.6025 21.4712 43.2424C21.1111 42.8824 20.9088 42.394 20.9088 41.8848V27.0912C20.9088 19.9062 23.7631 13.0154 28.8436 7.93483C33.9242 2.85424 40.815 0 48 0C55.185 0 62.0758 2.85424 67.1564 7.93483C72.237 13.0154 75.0912 19.9062 75.0912 27.0912V41.8848C75.0912 42.394 74.8889 42.8824 74.5289 43.2424C74.1688 43.6025 73.6804 43.8048 73.1712 43.8048Z" fill="#380D75"/>
<path d="M83.9616 96H12.0384C11.5292 96 11.0408 95.7977 10.6808 95.4377C10.3207 95.0776 10.1184 94.5892 10.1184 94.08V49.5744C10.1184 49.0652 10.3207 48.5768 10.6808 48.2168C11.0408 47.8567 11.5292 47.6544 12.0384 47.6544C12.5476 47.6544 13.036 47.8567 13.3961 48.2168C13.7561 48.5768 13.9584 49.0652 13.9584 49.5744V92.16H83.9616C84.4708 92.16 84.9592 92.3623 85.3193 92.7224C85.6793 93.0824 85.8816 93.5708 85.8816 94.08C85.8816 94.5892 85.6793 95.0776 85.3193 95.4377C84.9592 95.7977 84.4708 96 83.9616 96Z" fill="#380D75"/>
<path d="M83.9616 88.32C83.4524 88.32 82.964 88.1178 82.604 87.7577C82.2439 87.3976 82.0416 86.9093 82.0416 86.4V43.8048H12.0384C11.5292 43.8048 11.0408 43.6026 10.6808 43.2425C10.3207 42.8824 10.1184 42.3941 10.1184 41.8848C10.1184 41.3756 10.3207 40.8873 10.6808 40.5272C11.0408 40.1671 11.5292 39.9648 12.0384 39.9648H83.9616C84.4708 39.9648 84.9592 40.1671 85.3193 40.5272C85.6793 40.8873 85.8816 41.3756 85.8816 41.8848V86.4C85.8816 86.9093 85.6793 87.3976 85.3193 87.7577C84.9592 88.1178 84.4708 88.32 83.9616 88.32Z" fill="#380D75"/>
<path d="M48 83.8656C46.6106 83.8631 45.2789 83.31 44.2964 82.3276C43.314 81.3451 42.7609 80.0134 42.7584 78.624V72.864C41.5526 71.8794 40.6489 70.5746 40.1512 69.0995C39.6536 67.6244 39.5821 66.0388 39.9451 64.525C40.308 63.0111 41.0906 61.6303 42.203 60.5412C43.3154 59.4521 44.7124 58.6988 46.2336 58.368C47.4436 58.1058 48.6969 58.1177 49.9017 58.403C51.1064 58.6883 52.232 59.2397 53.1959 60.0167C54.1598 60.7937 54.9375 61.7766 55.472 62.8933C56.0065 64.0101 56.2842 65.2323 56.2848 66.4704C56.2897 67.6961 56.0187 68.9073 55.4919 70.014C54.9651 71.1208 54.196 72.0949 53.2416 72.864V78.624C53.2391 80.0134 52.686 81.3451 51.7036 82.3276C50.7211 83.31 49.3894 83.8631 48 83.8656ZM48 62.016C47.6771 62.0153 47.3551 62.0507 47.04 62.1216C46.1755 62.3118 45.388 62.7569 44.779 63.3993C44.1701 64.0418 43.7678 64.852 43.6242 65.7255C43.4805 66.5989 43.602 67.4953 43.9731 68.2989C44.3441 69.1026 44.9476 69.7765 45.7056 70.2336C45.9855 70.4062 46.2163 70.6478 46.376 70.9353C46.5357 71.2227 46.6189 71.5464 46.6176 71.8752V78.5952C46.6176 78.9669 46.7653 79.3234 47.0281 79.5863C47.291 79.8491 47.6475 79.9968 48.0192 79.9968C48.3909 79.9968 48.7474 79.8491 49.0103 79.5863C49.2731 79.3234 49.4208 78.9669 49.4208 78.5952V71.8752C49.4195 71.5464 49.5027 71.2227 49.6624 70.9353C49.8221 70.6478 50.0529 70.4062 50.3328 70.2336C51.1583 69.7281 51.7958 68.9665 52.148 68.0648C52.5001 67.1632 52.5477 66.1711 52.2833 65.24C52.019 64.3088 51.4573 63.4897 50.6839 62.9076C49.9105 62.3255 48.968 62.0123 48 62.016Z" fill="#380D75"/>
</g>
<defs>
<clipPath id="clip0_289_5047">
<rect width="96" height="96" fill="white"/>
</clipPath>
</defs>
</svg>
