<svg width="18" height="2" viewBox="0 0 18 2" fill="none" xmlns="http://www.w3.org/2000/svg">
<path fill-rule="evenodd" clip-rule="evenodd" d="M0.375 1C0.375 0.585786 0.710786 0.25 1.125 0.25L16.875 0.25C17.2892 0.25 17.625 0.585787 17.625 1C17.625 1.41421 17.2892 1.75 16.875 1.75L1.125 1.75C0.710786 1.75 0.375 1.41421 0.375 1Z" fill="#171321"/>
</svg>
