<svg width="357" height="243" viewBox="0 0 357 243" fill="none" xmlns="http://www.w3.org/2000/svg">
<path d="M337.337 169.858C287.905 184.064 151.19 169.414 55 42" stroke="#FC6D26" stroke-width="136.584"/>
</svg>
